rv_pl_tb_lat3.vcd
$date
	Thu Feb 19 12:11:56 2026
$end
$version
	Icarus Verilog
$end
$timescale
	1ps
$end
$scope module rv_pl_bram_latency_tb $end
$scope module uut $end
$var wire 1 ! E_PCSrc $end
$var wire 32 " E_WriteData [31:0] $end
$var wire 32 # F_instr [31:0] $end
$var wire 32 $ M_ReadDataW [31:0] $end
$var wire 1 % clk $end
$var wire 1 & rst_n $end
$var wire 1 ' stallF $end
$var wire 32 ( W_pc_plus_4 [31:0] $end
$var wire 2 ) W_ResultSrc [1:0] $end
$var wire 32 * W_Result [31:0] $end
$var wire 1 + W_RegWrite $end
$var wire 32 , W_ReadData [31:0] $end
$var wire 5 - W_Rd [4:0] $end
$var wire 32 . W_ALUResult [31:0] $end
$var wire 32 / M_pc_plus_4 [31:0] $end
$var wire 32 0 M_WriteData [31:0] $end
$var wire 2 1 M_ResultSrc [1:0] $end
$var wire 1 2 M_RegWrite $end
$var wire 5 3 M_Rd [4:0] $end
$var wire 1 4 M_MemWrite $end
$var wire 32 5 M_ALUResult [31:0] $end
$var wire 2 6 ForwardBE [1:0] $end
$var wire 2 7 ForwardAE [1:0] $end
$var wire 32 8 F_pc_plus_4 [31:0] $end
$var wire 32 9 F_pc_next [31:0] $end
$var wire 32 : F_pc [31:0] $end
$var wire 32 ; E_pc_plus_4 [31:0] $end
$var wire 32 < E_pcTarget [31:0] $end
$var wire 32 = E_pc [31:0] $end
$var wire 1 > E_flush $end
$var wire 1 ? E_Zero $end
$var wire 32 @ E_SrcB_forwarded [31:0] $end
$var wire 32 A E_SrcB [31:0] $end
$var wire 32 B E_SrcA_forwarded [31:0] $end
$var wire 32 C E_SrcA [31:0] $end
$var wire 5 D E_Rs2 [4:0] $end
$var wire 5 E E_Rs1 [4:0] $end
$var wire 2 F E_ResultSrc [1:0] $end
$var wire 1 G E_RegWrite $end
$var wire 5 H E_Rd [4:0] $end
$var wire 32 I E_RD2 [31:0] $end
$var wire 32 J E_RD1 [31:0] $end
$var wire 1 K E_MemWrite $end
$var wire 1 L E_Jump $end
$var wire 32 M E_ImmExt [31:0] $end
$var wire 1 N E_Branch $end
$var wire 1 O E_ALUSrcBSel $end
$var wire 1 P E_ALUSrcASel $end
$var wire 32 Q E_ALUResult [31:0] $end
$var wire 4 R E_ALUControl [3:0] $end
$var wire 1 S D_stall $end
$var wire 32 T D_pc_plus_4 [31:0] $end
$var wire 32 U D_pc [31:0] $end
$var wire 32 V D_instr [31:0] $end
$var wire 1 W D_flush $end
$var wire 5 X D_Rs2 [4:0] $end
$var wire 5 Y D_Rs1 [4:0] $end
$var wire 2 Z D_ResultSrc [1:0] $end
$var wire 1 [ D_RegWrite $end
$var wire 5 \ D_Rd [4:0] $end
$var wire 32 ] D_RD2 [31:0] $end
$var wire 32 ^ D_RD1 [31:0] $end
$var wire 1 _ D_MemWrite $end
$var wire 1 ` D_Jump $end
$var wire 3 a D_ImmSrc [2:0] $end
$var wire 32 b D_ImmExt [31:0] $end
$var wire 1 c D_Branch $end
$var wire 1 d D_ALUSrcBSel $end
$var wire 1 e D_ALUSrcASel $end
$var wire 4 f D_ALUControl [3:0] $end
$scope module PLR1 $end
$var wire 32 g F_instr [31:0] $end
$var wire 1 % clk $end
$var wire 1 & rst_n $end
$var wire 1 ' en $end
$var wire 1 W clr $end
$var wire 32 h F_pc_plus_4 [31:0] $end
$var wire 32 i F_pc [31:0] $end
$var reg 32 j D_instr [31:0] $end
$var reg 32 k D_pc [31:0] $end
$var reg 32 l D_pc_plus_4 [31:0] $end
$var reg 1 m clr_delay $end
$upscope $end
$scope module PLR2 $end
$var wire 32 n PCD [31:0] $end
$var wire 32 o PCPlus4D [31:0] $end
$var wire 5 p RdD [4:0] $end
$var wire 5 q Rs1D [4:0] $end
$var wire 5 r Rs2D [4:0] $end
$var wire 1 % clk $end
$var wire 1 & rst_n $end
$var wire 2 s ResultSrcD [1:0] $end
$var wire 1 [ RegWriteD $end
$var wire 32 t RD2D [31:0] $end
$var wire 32 u RD1D [31:0] $end
$var wire 1 _ MemWriteD $end
$var wire 1 ` JumpD $end
$var wire 32 v ImmExtD [31:0] $end
$var wire 1 > FlushE $end
$var wire 1 c BranchD $end
$var wire 1 d ALUSrcD $end
$var wire 1 e ALUSrcASelD $end
$var wire 4 w ALUControlD [3:0] $end
$var reg 4 x ALUControlE [3:0] $end
$var reg 1 P ALUSrcASelE $end
$var reg 1 O ALUSrcE $end
$var reg 1 N BranchE $end
$var reg 32 y ImmExtE [31:0] $end
$var reg 1 L JumpE $end
$var reg 1 K MemWriteE $end
$var reg 32 z PCE [31:0] $end
$var reg 32 { PCPlus4E [31:0] $end
$var reg 32 | RD1E [31:0] $end
$var reg 32 } RD2E [31:0] $end
$var reg 5 ~ RdE [4:0] $end
$var reg 1 G RegWriteE $end
$var reg 2 !" ResultSrcE [1:0] $end
$var reg 5 "" Rs1E [4:0] $end
$var reg 5 #" Rs2E [4:0] $end
$upscope $end
$scope module PLR3 $end
$var wire 1 K MemWriteE $end
$var wire 32 $" PCPlus4E [31:0] $end
$var wire 5 %" RdE [4:0] $end
$var wire 1 G RegWriteE $end
$var wire 2 &" ResultSrcE [1:0] $end
$var wire 32 '" WriteDataE [31:0] $end
$var wire 1 % clk $end
$var wire 1 (" flush $end
$var wire 1 & rst_n $end
$var wire 32 )" ALUResultE [31:0] $end
$var reg 32 *" ALUResultM [31:0] $end
$var reg 1 4 MemWriteM $end
$var reg 32 +" PCPlus4M [31:0] $end
$var reg 5 ," RdM [4:0] $end
$var reg 1 2 RegWriteM $end
$var reg 2 -" ResultSrcM [1:0] $end
$var reg 32 ." WriteDataM [31:0] $end
$upscope $end
$scope module PLR4 $end
$var wire 32 /" ALUResultM [31:0] $end
$var wire 32 0" PCPlus4M [31:0] $end
$var wire 5 1" RdM [4:0] $end
$var wire 32 2" ReadDataM [31:0] $end
$var wire 1 2 RegWriteM $end
$var wire 2 3" ResultSrcM [1:0] $end
$var wire 1 % clk $end
$var wire 1 & rst_n $end
$var reg 32 4" ALUResultW [31:0] $end
$var reg 32 5" PCPlus4W [31:0] $end
$var reg 5 6" RdW [4:0] $end
$var reg 32 7" ReadDataW [31:0] $end
$var reg 1 + RegWriteW $end
$var reg 2 8" ResultSrcW [1:0] $end
$upscope $end
$scope module RF $end
$var wire 5 9" a1 [4:0] $end
$var wire 5 :" a2 [4:0] $end
$var wire 5 ;" a3 [4:0] $end
$var wire 1 % clk $end
$var wire 1 + we3 $end
$var wire 32 <" wd3 [31:0] $end
$var wire 32 =" rd2 [31:0] $end
$var wire 32 >" rd1 [31:0] $end
$var integer 32 ?" i [31:0] $end
$upscope $end
$scope module alu_srca_mux $end
$var wire 32 @" d1 [31:0] $end
$var wire 1 P s $end
$var wire 32 A" y [31:0] $end
$var wire 32 B" d0 [31:0] $end
$upscope $end
$scope module alu_srcb_mux $end
$var wire 32 C" d1 [31:0] $end
$var wire 1 O s $end
$var wire 32 D" y [31:0] $end
$var wire 32 E" d0 [31:0] $end
$upscope $end
$scope module control_unit $end
$var wire 3 F" funct3 [2:0] $end
$var wire 1 G" funct7b5 $end
$var wire 7 H" op [6:0] $end
$var wire 2 I" ResultSrc [1:0] $end
$var wire 1 [ RegWrite $end
$var wire 1 _ MemWrite $end
$var wire 1 ` Jump $end
$var wire 3 J" ImmSrc [2:0] $end
$var wire 1 c Branch $end
$var wire 1 d ALUSrcBSel $end
$var wire 1 e ALUSrcASel $end
$var wire 2 K" ALUOp [1:0] $end
$var wire 4 L" ALUControl [3:0] $end
$scope module ad $end
$var wire 3 M" funct3 [2:0] $end
$var wire 1 G" funct7b5 $end
$var wire 1 N" opb5 $end
$var wire 2 O" ALUOp [1:0] $end
$var reg 4 P" ALUControl [3:0] $end
$upscope $end
$scope module md $end
$var wire 7 Q" op [6:0] $end
$var wire 2 R" ResultSrc [1:0] $end
$var wire 1 [ RegWrite $end
$var wire 1 _ MemWrite $end
$var wire 1 ` Jump $end
$var wire 3 S" ImmSrc [2:0] $end
$var wire 1 c Branch $end
$var wire 1 d ALUSrcBSel $end
$var wire 1 e ALUSrcASel $end
$var wire 2 T" ALUOp [1:0] $end
$var reg 13 U" controls [12:0] $end
$upscope $end
$upscope $end
$scope module ext_unit $end
$var wire 3 V" immsrc [2:0] $end
$var wire 25 W" instr [31:7] $end
$var reg 32 X" immext [31:0] $end
$upscope $end
$scope module forward_mux_a $end
$var wire 32 Y" d0 [31:0] $end
$var wire 32 Z" d2 [31:0] $end
$var wire 32 [" y [31:0] $end
$var wire 2 \" s [1:0] $end
$var wire 32 ]" d1 [31:0] $end
$upscope $end
$scope module forward_mux_b $end
$var wire 32 ^" d0 [31:0] $end
$var wire 32 _" d2 [31:0] $end
$var wire 32 `" y [31:0] $end
$var wire 2 a" s [1:0] $end
$var wire 32 b" d1 [31:0] $end
$upscope $end
$scope module hazard_unit $end
$var wire 1 ! PcSrcE $end
$var wire 5 c" RdE [4:0] $end
$var wire 5 d" RdM [4:0] $end
$var wire 5 e" RdW [4:0] $end
$var wire 1 G RegWriteE $end
$var wire 1 2 RegWriteM $end
$var wire 1 + RegWriteW $end
$var wire 1 f" ResultSrcE $end
$var wire 5 g" Rs1D [4:0] $end
$var wire 5 h" Rs1E [4:0] $end
$var wire 5 i" Rs2D [4:0] $end
$var wire 5 j" Rs2E [4:0] $end
$var wire 1 % clk $end
$var wire 1 k" lwstall $end
$var wire 1 & reset $end
$var reg 1 W FlushD $end
$var reg 1 > FlushE $end
$var reg 2 l" ForwardAE [1:0] $end
$var reg 2 m" ForwardBE [1:0] $end
$var reg 1 n" lw_stall_r $end
$var reg 1 o" pcsrc_r $end
$var reg 1 S stallD $end
$var reg 1 ' stallF $end
$scope begin $unm_blk_32 $end
$var reg 1 p" pcsrc_stall $end
$upscope $end
$upscope $end
$scope module main_alu $end
$var wire 4 q" ALUControl [3:0] $end
$var wire 32 r" SrcA [31:0] $end
$var wire 32 s" SrcB [31:0] $end
$var reg 32 t" ALUResult [31:0] $end
$var reg 1 ? Zero $end
$upscope $end
$scope module pc_add $end
$var wire 32 u" b [31:0] $end
$var wire 32 v" y [31:0] $end
$var wire 32 w" a [31:0] $end
$upscope $end
$scope module pc_reg $end
$var wire 1 % clk $end
$var wire 1 ' en $end
$var wire 32 x" pc_in [31:0] $end
$var wire 1 & rst_n $end
$var reg 32 y" out [31:0] $end
$upscope $end
$scope module pc_target_add $end
$var wire 32 z" a [31:0] $end
$var wire 32 {" b [31:0] $end
$var wire 32 |" y [31:0] $end
$upscope $end
$scope module result_mux $end
$var wire 32 }" d0 [31:0] $end
$var wire 32 ~" d1 [31:0] $end
$var wire 32 !# d2 [31:0] $end
$var wire 2 "# s [1:0] $end
$var wire 32 ## y [31:0] $end
$upscope $end
$upscope $end
$upscope $end
$enddefinitions $end
#0
$dumpvars
bx ##
bx "#
bx !#
bx ~"
bx }"
bx |"
bx {"
bx z"
b0 y"
b100 x"
b0 w"
b100 v"
b100 u"
bx t"
bx s"
bx r"
bx q"
xp"
xo"
xn"
bx m"
bx l"
xk"
bx j"
bx i"
bx h"
bx g"
xf"
bx e"
bx d"
bx c"
bx b"
bx a"
bx `"
bx _"
bx ^"
bx ]"
bx \"
bx ["
bx Z"
bx Y"
bx X"
bx W"
b0 V"
b0 U"
b0 T"
b0 S"
b0 R"
bx Q"
b0 P"
b0 O"
xN"
bx M"
b0 L"
b0 K"
b0 J"
b0 I"
bx H"
xG"
bx F"
bx E"
bx D"
bx C"
bx B"
bx A"
b0 @"
b100000 ?"
bx >"
bx ="
bx <"
bx ;"
bx :"
bx 9"
bx 8"
bx 7"
bx 6"
bx 5"
bx 4"
bx 3"
bx 2"
bx 1"
bx 0"
bx /"
bx ."
bx -"
bx ,"
bx +"
bx *"
bx )"
0("
bx '"
bx &"
bx %"
bx $"
bx #"
bx ""
bx !"
bx ~
bx }
bx |
bx {
bx z
bx y
bx x
b0 w
bx v
bx u
bx t
b0 s
bx r
bx q
bx p
bx o
bx n
xm
bx l
bx k
bx j
b0 i
b100 h
bx g
b0 f
0e
0d
0c
bx b
b0 a
0`
0_
bx ^
bx ]
bx \
0[
b0 Z
bx Y
bx X
xW
bx V
bx U
bx T
xS
bx R
bx Q
xP
xO
xN
bx M
xL
xK
bx J
bx I
bx H
xG
bx F
bx E
bx D
bx C
bx B
bx A
bx @
x?
x>
bx =
bx <
bx ;
b0 :
b100 9
b100 8
bx 7
bx 6
bx 5
x4
bx 3
x2
bx 1
bx 0
bx /
bx .
bx -
bx ,
x+
bx *
bx )
bx (
x'
0&
0%
bx $
bx #
bx "
x!
$end
#5000
1?
b0 Q
b0 )"
b0 t"
1[
1d
b10 K"
b10 O"
b10 T"
b0 A
b0 D"
b0 s"
b0 C
b0 A"
b0 r"
0W
0>
0S
0'
0p"
b0 b
b0 v
b0 X"
0N"
b1000100001000 U"
b0 ]
b0 t
b0 ="
b0 ^
b0 u
b0 >"
0k"
b0 "
b0 '"
b0 @
b0 E"
b0 `"
b0 B
b0 B"
b0 ["
0!
b0 W"
0G"
b0 F"
b0 M"
b10011 H"
b10011 Q"
b0 \
b0 p
b0 X
b0 r
b0 :"
b0 i"
b0 Y
b0 q
b0 9"
b0 g"
0f"
b0 *
b0 <"
b0 ]"
b0 b"
b0 ##
b0 6
b0 a"
b0 m"
b0 7
b0 \"
b0 l"
0m
b0 T
b0 l
b0 o
b0 U
b0 k
b0 n
b10011 V
b10011 j
b0 ;
b0 {
b0 $"
b0 <
b0 |"
b0 M
b0 y
b0 C"
b0 {"
b0 H
b0 ~
b0 %"
b0 c"
b0 D
b0 #"
b0 j"
b0 E
b0 ""
b0 h"
b0 =
b0 z
b0 z"
b0 I
b0 }
b0 ^"
b0 J
b0 |
b0 Y"
0P
0O
b0 R
b0 x
b0 q"
0N
0L
0K
b0 F
b0 !"
b0 &"
0G
b0 /
b0 +"
b0 0"
b0 3
b0 ,"
b0 1"
b0 d"
b0 0
b0 ."
b0 5
b0 *"
b0 /"
b0 Z"
b0 _"
04
b0 1
b0 -"
b0 3"
02
b0 (
b0 5"
b0 !#
b0 -
b0 6"
b0 ;"
b0 e"
b0 ,
b0 7"
b0 ~"
b0 .
b0 4"
b0 }"
b0 )
b0 8"
b0 "#
0+
0n"
0o"
b11111111111111111111111111111111 $
b11111111111111111111111111111111 2"
1%
#10000
0%
#15000
1%
#20000
0%
1&
#25000
x[
bx a
bx J"
bx S"
bx V"
xd
x_
bx Z
bx s
bx I"
bx R"
xc
bx K"
bx O"
bx T"
x`
xe
bx b
bx v
bx X"
bx f
bx w
bx L"
bx P"
xN"
bx U"
bx ]
bx t
bx ="
bx ^
bx u
bx >"
bx W"
xG"
bx F"
bx M"
bx H"
bx Q"
bx \
bx p
bx X
bx r
bx :"
bx i"
bx Y
bx q
bx 9"
bx g"
b1000 9
b1000 x"
b100 T
b100 l
b100 o
bx V
bx j
1O
1G
b11111111111111111111111111111111 ,
b11111111111111111111111111111111 7"
b11111111111111111111111111111111 ~"
b0 $
b0 2"
b10011 #
b10011 g
b1000 8
b1000 h
b1000 v"
b100 :
b100 i
b100 w"
b100 y"
1%
#30000
0%
#35000
x>
b0 b
b0 v
b0 X"
b0 f
b0 w
b0 L"
b0 P"
xk"
bx C
bx A"
bx r"
1[
b0 a
b0 J"
b0 S"
b0 V"
1d
0_
b0 Z
b0 s
b0 I"
b0 R"
0c
b10 K"
b10 O"
b10 T"
0`
0e
xW
xS
x'
xp"
bx "
bx '"
bx @
bx E"
bx `"
bx B
bx B"
bx ["
0N"
b1000100001000 U"
b0 ]
b0 t
b0 ="
b0 ^
b0 u
b0 >"
x?
bx Q
bx )"
bx t"
x!
xf"
bx A
bx D"
bx s"
b0 W"
0G"
b0 F"
b0 M"
b10011 H"
b10011 Q"
b0 \
b0 p
b0 X
b0 r
b0 :"
b0 i"
b0 Y
b0 q
b0 9"
b0 g"
b1100 9
b1100 x"
b0 ,
b0 7"
b0 ~"
12
xP
xO
bx R
bx x
bx q"
xN
xL
xK
bx F
bx !"
bx &"
xG
b100 ;
b100 {
b100 $"
bx <
bx |"
bx M
bx y
bx C"
bx {"
bx H
bx ~
bx %"
bx c"
bx D
bx #"
bx j"
bx E
bx ""
bx h"
bx I
bx }
bx ^"
bx J
bx |
bx Y"
b1000 T
b1000 l
b1000 o
b100 U
b100 k
b100 n
b10011 V
b10011 j
b1100 8
b1100 h
b1100 v"
b1000 :
b1000 i
b1000 w"
b1000 y"
1%
#40000
0%
#45000
1?
b0 Q
b0 )"
b0 t"
0W
0>
0p"
b0 C
b0 A"
b0 r"
0!
0k"
b0 "
b0 '"
b0 @
b0 E"
b0 `"
b0 B
b0 B"
b0 ["
0f"
b0 A
b0 D"
b0 s"
b10000 9
b10000 x"
xm
b1100 T
b1100 l
b1100 o
b1000 U
b1000 k
b1000 n
0P
1O
b0 R
b0 x
b0 q"
0N
0L
0K
b0 F
b0 !"
b0 &"
1G
b1000 ;
b1000 {
b1000 $"
b100 <
b100 |"
b0 M
b0 y
b0 C"
b0 {"
b0 H
b0 ~
b0 %"
b0 c"
b0 D
b0 #"
b0 j"
b0 E
b0 ""
b0 h"
b100 =
b100 z
b100 z"
b0 I
b0 }
b0 ^"
b0 J
b0 |
b0 Y"
b100 /
b100 +"
b100 0"
bx 3
bx ,"
bx 1"
bx d"
bx 0
bx ."
bx 5
bx *"
bx /"
bx Z"
bx _"
x4
bx 1
bx -"
bx 3"
x2
1+
xn"
xo"
b10000 8
b10000 h
b10000 v"
b1100 :
b1100 i
b1100 w"
b1100 y"
1%
#50000
0%
#55000
bx *
bx <"
bx ]"
bx b"
bx ##
0S
0'
b10100 9
b10100 x"
b11111111111111111111111111111111 $
b11111111111111111111111111111111 2"
0o"
0n"
b100 (
b100 5"
b100 !#
bx -
bx 6"
bx ;"
bx e"
bx .
bx 4"
bx }"
bx )
bx 8"
bx "#
x+
b1000 /
b1000 +"
b1000 0"
b0 3
b0 ,"
b0 1"
b0 d"
b0 0
b0 ."
b0 5
b0 *"
b0 /"
b0 Z"
b0 _"
04
b0 1
b0 -"
b0 3"
12
b1100 ;
b1100 {
b1100 $"
b1000 <
b1000 |"
b1000 =
b1000 z
b1000 z"
b10000 T
b10000 l
b10000 o
b1100 U
b1100 k
b1100 n
0m
b10100 8
b10100 h
b10100 v"
b10000 :
b10000 i
b10000 w"
b10000 y"
1%
#60000
0%
#65000
b0 *
b0 <"
b0 ]"
b0 b"
b0 ##
b11000 9
b11000 x"
b10100 T
b10100 l
b10100 o
b10000 U
b10000 k
b10000 n
b10000 ;
b10000 {
b10000 $"
b1100 <
b1100 |"
b1100 =
b1100 z
b1100 z"
b1100 /
b1100 +"
b1100 0"
b1000 (
b1000 5"
b1000 !#
b0 -
b0 6"
b0 ;"
b0 e"
b11111111111111111111111111111111 ,
b11111111111111111111111111111111 7"
b11111111111111111111111111111111 ~"
b0 .
b0 4"
b0 }"
b0 )
b0 8"
b0 "#
1+
b100010011 #
b100010011 g
b11000 8
b11000 h
b11000 v"
b10100 :
b10100 i
b10100 w"
b10100 y"
1%
#70000
0%
#75000
b10 W"
b10 \
b10 p
b11100 9
b11100 x"
b100001000000010010011 #
b100001000000010010011 g
b1100 (
b1100 5"
b1100 !#
b10000 /
b10000 +"
b10000 0"
b10100 ;
b10100 {
b10100 $"
b10000 <
b10000 |"
b10000 =
b10000 z
b10000 z"
b11000 T
b11000 l
b11000 o
b10100 U
b10100 k
b10100 n
b100010011 V
b100010011 j
b11100 8
b11100 h
b11100 v"
b11000 :
b11000 i
b11000 w"
b11000 y"
1%
#80000
0%
#85000
b1 b
b1 v
b1 X"
b10000100000001 W"
b1 \
b1 p
b1 X
b1 r
b1 :"
b1 i"
b1 Y
b1 q
b1 9"
b1 g"
b100000 9
b100000 x"
b11100 T
b11100 l
b11100 o
b11000 U
b11000 k
b11000 n
b100001000000010010011 V
b100001000000010010011 j
b11000 ;
b11000 {
b11000 $"
b10 H
b10 ~
b10 %"
b10 c"
b10100 <
b10100 |"
b10100 =
b10100 z
b10100 z"
b10100 /
b10100 +"
b10100 0"
b10000 (
b10000 5"
b10000 !#
b0 $
b0 2"
b1100000000000110010011 #
b1100000000000110010011 g
b100000 8
b100000 h
b100000 v"
b11100 :
b11100 i
b11100 w"
b11100 y"
1%
#90000
0%
#95000
0?
b1 Q
b1 )"
b1 t"
b11 b
b11 v
b11 X"
b1 A
b1 D"
b1 s"
b110000000000011 W"
b11 \
b11 p
b11 X
b11 r
b11 :"
b11 i"
b0 Y
b0 q
b0 9"
b0 g"
b100100 9
b100100 x"
b11111111111111111111111111111111 $
b11111111111111111111111111111111 2"
b1100001000011001100011 #
b1100001000011001100011 g
b10100 (
b10100 5"
b10100 !#
b0 ,
b0 7"
b0 ~"
b11000 /
b11000 +"
b11000 0"
b10 3
b10 ,"
b10 1"
b10 d"
b11100 ;
b11100 {
b11100 $"
b1 M
b1 y
b1 C"
b1 {"
b1 H
b1 ~
b1 %"
b1 c"
b1 D
b1 #"
b1 j"
b1 E
b1 ""
b1 h"
b11001 <
b11001 |"
b11000 =
b11000 z
b11000 z"
b100000 T
b100000 l
b100000 o
b11100 U
b11100 k
b11100 n
b1100000000000110010011 V
b1100000000000110010011 j
b100100 8
b100100 h
b100100 v"
b100000 :
b100000 i
b100000 w"
b100000 y"
1%
#100000
0%
#105000
b1100 b
b1100 v
b1100 X"
b1 f
b1 w
b1 L"
b1 P"
0[
b10 a
b10 J"
b10 S"
b10 V"
0d
bx Z
bx s
bx I"
bx R"
1c
b1 K"
b1 O"
b1 T"
1N"
b1000xx10100 U"
b11 Q
b11 )"
b11 t"
b110000100001100 W"
b1100011 H"
b1100011 Q"
b1100 \
b1100 p
b1 Y
b1 q
b1 9"
b1 g"
b11 A
b11 D"
b11 s"
b101000 9
b101000 x"
b100100 T
b100100 l
b100100 o
b100000 U
b100000 k
b100000 n
b1100001000011001100011 V
b1100001000011001100011 j
b100000 ;
b100000 {
b100000 $"
b11 M
b11 y
b11 C"
b11 {"
b11 H
b11 ~
b11 %"
b11 c"
b11 D
b11 #"
b11 j"
b0 E
b0 ""
b0 h"
b11111 <
b11111 |"
b11100 =
b11100 z
b11100 z"
b11100 /
b11100 +"
b11100 0"
b1 3
b1 ,"
b1 1"
b1 d"
b1 5
b1 *"
b1 /"
b1 Z"
b1 _"
b11000 (
b11000 5"
b11000 !#
b10 -
b10 6"
b10 ;"
b10 e"
b11111111111111111111111111111111 ,
b11111111111111111111111111111111 7"
b11111111111111111111111111111111 ~"
b100010000000100010011 #
b100010000000100010011 g
b101000 8
b101000 h
b101000 v"
b100100 :
b100100 i
b100100 w"
b100100 y"
1%
#110000
0%
#115000
b1 C
b1 A"
b1 r"
0W
0S
0'
0p"
b1 B
b1 B"
b1 ["
b11 "
b11 '"
b11 @
b11 E"
b11 `"
0!
b0 f
b0 w
b0 L"
b0 P"
1[
b0 a
b0 J"
b0 S"
b0 V"
1d
b0 Z
b0 s
b0 I"
b0 R"
0c
b10 K"
b10 O"
b10 T"
b1 *
b1 <"
b1 ]"
b1 b"
b1 ##
b1 b
b1 v
b1 X"
0N"
b1000100001000 U"
b10 6
b10 a"
b10 m"
0?
b11111111111111111111111111111110 Q
b11111111111111111111111111111110 )"
b11111111111111111111111111111110 t"
xf"
b11 A
b11 D"
b11 s"
b1 7
b1 \"
b1 l"
b10001000000010 W"
b10011 H"
b10011 Q"
b10 \
b10 p
b1 X
b1 r
b1 :"
b1 i"
b10 Y
b10 q
b10 9"
b10 g"
b101100 9
b101100 x"
b11111110000000000000100011100011 #
b11111110000000000000100011100011 g
b11100 (
b11100 5"
b11100 !#
b1 -
b1 6"
b1 ;"
b1 e"
b1 .
b1 4"
b1 }"
b100000 /
b100000 +"
b100000 0"
b11 3
b11 ,"
b11 1"
b11 d"
b11 5
b11 *"
b11 /"
b11 Z"
b11 _"
0O
b1 R
b1 x
b1 q"
1N
bx F
bx !"
bx &"
0G
b100100 ;
b100100 {
b100100 $"
b1100 M
b1100 y
b1100 C"
b1100 {"
b1100 H
b1100 ~
b1100 %"
b1100 c"
b1 E
b1 ""
b1 h"
b101100 <
b101100 |"
b100000 =
b100000 z
b100000 z"
b101000 T
b101000 l
b101000 o
b100100 U
b100100 k
b100100 n
b100010000000100010011 V
b100010000000100010011 j
b101100 8
b101100 h
b101100 v"
b101000 :
b101000 i
b101000 w"
b101000 y"
1%
#120000
b1 ]
b1 t
b1 ="
0%
#125000
b0 C
b0 A"
b0 r"
b0 B
b0 B"
b0 ["
0[
b10 a
b10 J"
b10 S"
b10 V"
0d
bx Z
bx s
bx I"
bx R"
1c
b1 K"
b1 O"
b1 T"
0>
0S
0'
b11111111111111111111111111110000 b
b11111111111111111111111111110000 v
b11111111111111111111111111110000 X"
b1 f
b1 w
b1 L"
b1 P"
1N"
b1000xx10100 U"
b0 ]
b0 t
b0 ="
0k"
b11 *
b11 <"
b11 ]"
b11 b"
b11 ##
b1111111000000000000010001 W"
1G"
b1100011 H"
b1100011 Q"
b10001 \
b10001 p
b0 X
b0 r
b0 :"
b0 i"
b0 Y
b0 q
b0 9"
b0 g"
b1 A
b1 D"
b1 s"
b1 Q
b1 )"
b1 t"
0f"
b1 "
b1 '"
b1 @
b1 E"
b1 `"
b0 6
b0 a"
b0 m"
b0 7
b0 \"
b0 l"
b110000 9
b110000 x"
b101100 T
b101100 l
b101100 o
b101000 U
b101000 k
b101000 n
b11111110000000000000100011100011 V
b11111110000000000000100011100011 j
1O
b0 R
b0 x
b0 q"
0N
b0 F
b0 !"
b0 &"
1G
b101000 ;
b101000 {
b101000 $"
b1 M
b1 y
b1 C"
b1 {"
b10 H
b10 ~
b10 %"
b10 c"
b1 D
b1 #"
b1 j"
b10 E
b10 ""
b10 h"
b100101 <
b100101 |"
b100100 =
b100100 z
b100100 z"
b1 I
b1 }
b1 ^"
b100100 /
b100100 +"
b100100 0"
b1100 3
b1100 ,"
b1100 1"
b1100 d"
b11 0
b11 ."
b11111111111111111111111111111110 5
b11111111111111111111111111111110 *"
b11111111111111111111111111111110 /"
b11111111111111111111111111111110 Z"
b11111111111111111111111111111110 _"
bx 1
bx -"
bx 3"
02
b100000 (
b100000 5"
b100000 !#
b11 -
b11 6"
b11 ;"
b11 e"
b11 .
b11 4"
b11 }"
b100000010000000100011 #
b100000010000000100011 g
b110000 8
b110000 h
b110000 v"
b101100 :
b101100 i
b101100 w"
b101100 y"
1%
#130000
0%
#135000
1W
1S
1'
1p"
1!
1?
b0 f
b0 w
b0 L"
b0 P"
b0 A
b0 D"
b0 s"
b1 a
b1 J"
b1 S"
b1 V"
1d
1_
0c
b0 K"
b0 O"
b0 T"
bx1xx1xx *
bx1xx1xx <"
bx1xx1xx ]"
bx1xx1xx b"
bx1xx1xx ##
b0 "
b0 '"
b0 @
b0 E"
b0 `"
b0 b
b0 v
b0 X"
b111xx00000 U"
b1 ]
b1 t
b1 ="
b0 Q
b0 )"
b0 t"
xf"
b10000001000000 W"
0G"
b10 F"
b10 M"
b100011 H"
b100011 Q"
b0 \
b0 p
b1 X
b1 r
b1 :"
b1 i"
b11000 9
b11000 x"
b1000000010001000100011 #
b1000000010001000100011 g
b100100 (
b100100 5"
b100100 !#
b1100 -
b1100 6"
b1100 ;"
b1100 e"
b11111111111111111111111111111110 .
b11111111111111111111111111111110 4"
b11111111111111111111111111111110 }"
bx )
bx 8"
bx "#
0+
b101000 /
b101000 +"
b101000 0"
b10 3
b10 ,"
b10 1"
b10 d"
b1 0
b1 ."
b1 5
b1 *"
b1 /"
b1 Z"
b1 _"
b0 1
b0 -"
b0 3"
12
0O
b1 R
b1 x
b1 q"
1N
bx F
bx !"
bx &"
0G
b101100 ;
b101100 {
b101100 $"
b11111111111111111111111111110000 M
b11111111111111111111111111110000 y
b11111111111111111111111111110000 C"
b11111111111111111111111111110000 {"
b10001 H
b10001 ~
b10001 %"
b10001 c"
b0 D
b0 #"
b0 j"
b0 E
b0 ""
b0 h"
b11000 <
b11000 |"
b101000 =
b101000 z
b101000 z"
b0 I
b0 }
b0 ^"
b110000 T
b110000 l
b110000 o
b101100 U
b101100 k
b101100 n
b100000010000000100011 V
b100000010000000100011 j
b110100 8
b110100 h
b110100 v"
b110000 :
b110000 i
b110000 w"
b110000 y"
1%
#140000
0%
#145000
1[
b0 a
b0 J"
b0 S"
b0 V"
0_
b0 Z
b0 s
b0 I"
b0 R"
b10 K"
b10 O"
b10 T"
0W
0N"
b1000100001000 U"
b0 ]
b0 t
b0 ="
0!
b1 "
b1 '"
b1 @
b1 E"
b1 `"
b0 W"
b0 F"
b0 M"
b10011 H"
b10011 Q"
b0 X
b0 r
b0 :"
b0 i"
b110100 9
b110100 x"
b1 *
b1 <"
b1 ]"
b1 b"
b1 ##
0S
0'
0p"
1m
b0 T
b0 l
b0 o
b0 U
b0 k
b0 n
b10011 V
b10011 j
1O
b0 R
b0 x
b0 q"
0N
1K
b110000 ;
b110000 {
b110000 $"
b0 M
b0 y
b0 C"
b0 {"
b0 H
b0 ~
b0 %"
b0 c"
b1 D
b1 #"
b1 j"
b101100 <
b101100 |"
b101100 =
b101100 z
b101100 z"
b1 I
b1 }
b1 ^"
b101100 /
b101100 +"
b101100 0"
b10001 3
b10001 ,"
b10001 1"
b10001 d"
b0 0
b0 ."
b0 5
b0 *"
b0 /"
b0 Z"
b0 _"
bx 1
bx -"
bx 3"
02
b101000 (
b101000 5"
b101000 !#
b10 -
b10 6"
b10 ;"
b10 e"
b1 .
b1 4"
b1 }"
b0 )
b0 8"
b0 "#
1+
1o"
b1100011 #
b1100011 g
1%
#150000
0%
